
Cliente                                                                      Servidor
192.168.0.7.55578                                                  206.188.192.144.80

|                                                                                   |
| 1. Flags [S], seq 1019469586, win 65535, length 0                                 |
|---------------------------------------------------------------------------------->|
| 2. Flags [S.], seq 596359284, ack 1019469587, win 4000, length 0                  |
|<----------------------------------------------------------------------------------|
| 3. Flags [.], ack 1, win 2060, length 0                                           |
|---------------------------------------------------------------------------------->|
| 4. Flags [P.], seq 1:80, ack 1, win 2060, length 79: HTTP: GET / HTTP/1.1         |
|---------------------------------------------------------------------------------->|
| 5. Flags [P.], seq 1:992, ack 80, win 4858, length 991: HTTP: HTTP/1.1 200 OK     |
|<----------------------------------------------------------------------------------|
| 6. Flags [.], ack 992, win 2044, length 0                                         |
|---------------------------------------------------------------------------------->|
| 7. Flags [F.], seq 80, ack 992, win 2048, length 0                                |
|---------------------------------------------------------------------------------->|
| 8. Flags [F.], seq 992, ack 81, win 114, length 0                                 |
|<----------------------------------------------------------------------------------|
| 9. Flags [.], ack 993, win 2048, length 0                                         |
|---------------------------------------------------------------------------------->|
|                                                                                   |
v                                                                                   v

//reading from PCAP-NG file www_khronos_com.pcap
1. IP 192.168.0.7.55578 > 206.188.192.144.80: Flags [S], seq 1019469586, win 65535, options [mss 1460,nop,wscale 6,nop,nop,TS val 239551106 ecr 0,sackOK,eol], length 0
2. IP 206.188.192.144.80 > 192.168.0.7.55578: Flags [S.], seq 596359284, ack 1019469587, win 4000, options [mss 1400,nop,wscale 2,sackOK,TS val 4077412 ecr 239551106], length 0
3. IP 192.168.0.7.55578 > 206.188.192.144.80: Flags [.], ack 1, win 2060, options [nop,nop,TS val 239551200 ecr 4077412], length 0
4. IP 192.168.0.7.55578 > 206.188.192.144.80: Flags [P.], seq 1:80, ack 1, win 2060, options [nop,nop,TS val 239551200 ecr 4077412], length 79: HTTP: GET / HTTP/1.1
5. IP 206.188.192.144.80 > 192.168.0.7.55578: Flags [P.], seq 1:992, ack 80, win 4858, options [nop,nop,TS val 4077434 ecr 239551200], length 991: HTTP: HTTP/1.1 200 OK
6. IP 192.168.0.7.55578 > 206.188.192.144.80: Flags [.], ack 992, win 2044, options [nop,nop,TS val 239551286 ecr 4077434], length 0
7. IP 192.168.0.7.55578 > 206.188.192.144.80: Flags [F.], seq 80, ack 992, win 2048, options [nop,nop,TS val 239551287 ecr 4077434], length 0
8. IP 206.188.192.144.80 > 192.168.0.7.55578: Flags [F.], seq 992, ack 81, win 114, length 0
9. IP 192.168.0.7.55578 > 206.188.192.144.80: Flags [.], ack 993, win 2048, options [nop,nop,TS val 239551361 ecr 4077434], length 0

